1625747413246826483
1625747413296173742
1625747413348115029
1625747413398092016
1625747413448182768
1625747413499212672
1625747413549423922
1625747413600472009
1625747413650163586
1625747413700337705
1625747413751257536
1625747413802110086
1625747413852102234
1625747413903019941
1625747413953169465
1625747414005280738
1625747414056032285
1625747414117077479
1625747414184683402
1625747414236860249
1625747414287447598
1625747414338581351
1625747414389222911
1625747414438634033
1625747414488281879
1625747414539817074
1625747414589883582
1625747414639742988
1625747414689801428
1625747414740399573
1625747414789746065
1625747414839700858
1625747414889703730
1625747414939577308
1625747414989586412
1625747415039261340
1625747415089619857
1625747415139636940
1625747415189562803
1625747415239650931
1625747415289601181
1625747415339450026
1625747415389302981
1625747415440719377
1625747415490690269
1625747415540964743
1625747415590512985
1625747415640454018
1625747415690483258
1625747415740492759
1625747415790541427
1625747415840469507
1625747415890536739
1625747415940350187
1625747415990261243
1625747416040151107
1625747416090204803
1625747416140120458
1625747416191239865
1625747416240130561
1625747416290232528
1625747416340487572
1625747416390214847
1625747416440259928
1625747416490235720
1625747416540206159
1625747416590215398
1625747416640140302
1625747416691139961
1625747416741431454
1625747416792499801
1625747416843281683
1625747416895068289
1625747416944289159
1625747416995172432
1625747417044861853
1625747417095276619
1625747417145218338
1625747417195467670
1625747417246448661
1625747417296205259
1625747417347022128
1625747417396991548
1625747417446526685
1625747417497476384
1625747417547534944
1625747417597496553
1625747417647312916
1625747417697439484
1625747417747318526
1625747417797293337
1625747417847215110
1625747417897506268
1625747417948848557
1625747417999728792
