1625756153314031019
1625756153364101443
1625756153414372125
1625756153464198431
1625756153514375073
1625756153564202230
1625756153614123117
1625756153664268757
1625756153714227364
1625756153764127175
1625756153814225274
1625756153864106711
1625756153914261356
1625756153964558993
1625756154014193028
1625756154064220193
1625756154114214259
1625756154164260352
1625756154214196155
1625756154264249423
1625756154314222105
1625756154364224059
1625756154414308256
1625756154464258410
1625756154514315561
1625756154564153291
1625756154614230710
1625756154664183030
1625756154714291664
1625756154764367293
1625756154814279286
1625756154864294556
1625756154914225850
1625756154964276845
1625756155014249149
1625756155064306002
1625756155114246501
1625756155164300104
1625756155214369896
1625756155264288068
1625756155314357499
1625756155364238523
1625756155414383009
1625756155464229684
1625756155514352995
1625756155564265391
1625756155614314512
1625756155664335430
1625756155714349298
1625756155764265490
1625756155814322957
1625756155864277112
1625756155914427062
1625756155964318634
1625756156014313025
1625756156064346066
1625756156114400412
1625756156164288642
1625756156214338237
1625756156264262905
1625756156314341103
1625756156364372614
1625756156414482618
1625756156464364543
1625756156514388089
1625756156564378204
1625756156614330842
1625756156664388749
1625756156714331705
1625756156764403251
1625756156814546022
1625756156864424307
1625756156914392778
1625756156964320887
1625756157014382965
1625756157064451995
1625756157114361814
1625756157164622946
1625756157214373551
1625756157265399724
1625756157315367539
1625756157365407317
1625756157414354714
1625756157464388624
1625756157514418927
1625756157564378490
1625756157614413007
1625756157664378988
1625756157714385370
1625756157764333845
1625756157814434505
1625756157864405569
1625756157914527534
1625756157964705513
1625756158014467930
1625756158064458473
1625756158114417574
1625756158164466032
1625756158214451599
1625756158264449445
1625756158314505381
