1625747370049362597
1625747370099489971
1625747370149087007
1625747370199785621
1625747370249302638
1625747370300154791
1625747370352795397
1625747370411578493
1625747370480204942
1625747370532502988
1625747370583277053
1625747370634229284
1625747370684872235
1625747370734333303
1625747370785605651
1625747370835828767
1625747370885227371
1625747370935640527
1625747370985616277
1625747371035525469
1625747371085449091
1625747371135021743
1625747371185639349
1625747371235077516
1625747371285671247
1625747371335340253
1625747371386626327
1625747371436466570
1625747371487890525
1625747371537919480
1625747371587773675
1625747371638429991
1625747371690341109
1625747371740652207
1625747371791505113
1625747371841589907
1625747371891677876
1625747371944171567
1625747371994126051
1625747372044271183
1625747372094447596
1625747372146585064
1625747372196736644
1625747372246729382
1625747372296352246
1625747372346094588
1625747372396236233
1625747372447002592
1625747372497058183
1625747372547313798
1625747372597510485
1625747372647378622
1625747372698357681
1625747372749294907
1625747372799824166
1625747372849897034
1625747372899919527
1625747372951075813
1625747373002633234
1625747373062005176
1625747373130575792
1625747373182823713
1625747373233942971
1625747373285022381
1625747373334508711
1625747373384434203
1625747373435124233
1625747373485436651
1625747373536555632
1625747373588494909
1625747373637412669
1625747373687963188
1625747373737908341
1625747373787466189
1625747373839116254
1625747373889080439
1625747373939116545
1625747373989154997
1625747374038532575
1625747374089243409
1625747374139477478
1625747374189371496
1625747374239335213
1625747374289505537
1625747374339513335
1625747374389580439
1625747374440662619
1625747374490594554
1625747374541917753
1625747374591643541
1625747374643569292
1625747374693410325
1625747374744452082
1625747374794590589
1625747374844341226
1625747374894240806
1625747374944689715
1625747374997172023
1625747375048193224
1625747375098063976
1625747375147435797
1625747375198210910
1625747375248151127
