1625756059756359046
1625756059806235339
1625756059856223390
1625756059906228661
1625756059956190610
1625756060006175658
1625756060056212356
1625756060106202178
1625756060156174549
1625756060206249082
1625756060256196413
1625756060306230027
1625756060356180186
1625756060406264051
1625756060456287257
1625756060506265080
1625756060556807941
1625756060606261757
1625756060656322854
1625756060706256073
1625756060756259150
1625756060806338343
1625756060856237432
1625756060906312745
1625756060956327058
1625756061006312828
1625756061056314045
1625756061106365095
1625756061156256937
1625756061206357077
1625756061256256498
1625756061306371381
1625756061356695362
1625756061406356011
1625756061456383975
1625756061506402783
1625756061556287134
1625756061606262963
1625756061656323721
1625756061706314102
1625756061756340416
1625756061806403744
1625756061856365102
1625756061906383082
1625756061956304067
1625756062006357437
1625756062056289091
1625756062106372234
1625756062156713478
1625756062206385853
1625756062256422753
1625756062306427473
1625756062356377089
1625756062406427265
1625756062456448314
1625756062506428789
1625756062556447922
1625756062606481524
1625756062656432931
1625756062706390237
1625756062756324198
1625756062806414794
1625756062856348036
1625756062906386810
1625756062956754914
1625756063006427178
1625756063056455761
1625756063106393937
1625756063156391879
1625756063206388204
1625756063256390852
1625756063306493877
1625756063356437033
1625756063406478297
1625756063456455861
1625756063506514125
1625756063556431922
1625756063606478651
1625756063656403440
1625756063706473802
1625756063756677048
