1625756000650571186
1625756000700510155
1625756000750548107
1625756000800531154
1625756000850567082
1625756000900519637
1625756000950540262
1625756001000448481
1625756001050554452
1625756001100916224
1625756001150544600
1625756001200611078
1625756001250560094
1625756001300484603
1625756001350461319
1625756001400569970
1625756001450478554
1625756001500482768
1625756001550562671
1625756001600508069
1625756001650525296
1625756001700455444
1625756001750543351
1625756001800514938
1625756001850525085
1625756001900625837
1625756001950567536
1625756002000547128
1625756002050504228
1625756002100595025
1625756002150495852
1625756002200575216
1625756002250498171
1625756002300596422
1625756002350671217
1625756002400594785
1625756002450584932
1625756002500513895
1625756002550616911
1625756002600516778
1625756002650599567
1625756002701087482
1625756002750566312
1625756002800631553
1625756002850566460
1625756002900685613
1625756002950621880
1625756003000535947
1625756003050599844
1625756003100629264
1625756003150626484
1625756003200624472
1625756003250625259
1625756003300581175
1625756003350619674
1625756003400684712
1625756003450673243
1625756003500816629
1625756003550621899
1625756003600713134
1625756003650647192
1625756003700705504
1625756003750626204
1625756003800771479
1625756003850705758
1625756003900696147
1625756003950608467
1625756004000715384
1625756004050707765
1625756004100743556
1625756004150739090
1625756004200641744
1625756004250652640
1625756004300914573
1625756004350779342
1625756004400804568
1625756004450761782
1625756004500760873
1625756004550667980
1625756004600735504
1625756004650682837
1625756004700745722
1625756004750784673
1625756004800723745
1625756004850782652
1625756004900770883
1625756004950737925
1625756005000690238
1625756005050773964
1625756005101196644
